Sample,NumSamples,Combo,Extraction,Pool
TM1_S2,8,N,S,A
TM3_S3,8,N,S,A
TM4_S4,8,N,S,A
TM6_S5,8,N,S,A
TM7_S6,8,N,S,A
TM9_S7,8,N,S,A
TM10_S8,8,N,S,A
TM11,8,N,S,A
TM12,8,N,S,A
TM13,8,N,S,A
TM14,8,N,S,A
TM15,8,N,S,A
TM16,8,N,S,A
TM17,8,N,S,A
TM18A,8,N,S,A
TM18B,8,N,S,A
TM19,8,N,S,A
TM20,8,N,S,A
TM21,8,N,S,A
TM22,8,N,S,A
TM25,8,N,S,A
TM23A,8,N,S,A
TM23B,8,N,S,A
TM23C,8,N,S,A
TM24A,8,N,S,A
TM24B,8,N,S,A
TM26,8,N,S,A
TM27,8,N,S,A
TM28,8,N,S,A
TM30_S1,8,N,S,A
TM31_S2,8,N,S,A
TM32_S3,8,N,S,A
TM33_S4,8,N,S,A
TM34_S5,8,N,S,A
TM35_S6,8,N,S,A
TM36_S7,8,N,S,A
TM37_S8,8,N,S,A
CTM28,4,Y,S,A
CTM29,4,Y,S,A
CTM30,4,Y,S,A
CTM31,4,Y,S,A
CTM7,4,Y,S,A
CTM13,4,Y,S,A
CTM16,4,Y,S,A
CTM27,4,Y,S,A
57295,24,N,S,A
TM30,24,N,S,A
TM44,24,N,S,A
TM6,24,N,S,A
TM31,24,N,S,A
TM45,24,N,S,A
TM7,24,N,S,A
TM38,24,N,S,A
TM46,24,N,S,A
TM11,24,N,S,A
TM39,24,N,S,A
TM92,24,N,S,A
TM13,24,N,S,A
TM40,24,N,S,A
TM93,24,N,S,A
TM18B,24,N,S,A
TM41,24,N,S,A
TM94,24,N,S,A
TM23B,24,N,S,A
TM42,24,N,S,A
TM95,24,N,S,A
TM23C,24,N,S,A
TM43,24,N,S,A
TM96,24,N,S,A
